{
    "BackgroundMain": "tavern_loop",
    "BackgroundBattle": "track_shortadventure_loop",
    "Button": "sfx_button_select1",
    "SummaryWin": "stinger_win",
    "SummaryLose": "stinger_lose",
    "Sword": "Sword 4",
    "Damage": "damage-2",
    "DamageDelay": 3.0
}