{
    "Rewards": [
        {
            "Type": 1,
            "Value": 1000
        },
        {
            "Type": 1,
            "Value": 500
        },
        {
            "Type": 1,
            "Value": 100
        },
        {
            "Type": 3,
            "Value": 1
        },
        {
            "Type": 3,
            "Value": 1
        },
        {
            "Type": 3,
            "Value": 1
        },
        {
            "Type": 3,
            "Value": 1
        },
        {
            "Type": 3,
            "Value": 1
        },
        {
            "Type": 3,
            "Value": 1
        },
        {
            "Type": 3,
            "Value": 1
        }
    ]
}